{
    "meta": {
        "ga": "",
        "pages": [
            {
                "id": "home",
                "title": "Home | Fuori Limited &copy;"
            },
            {
                "id": "for",
                "title": "For | Fuori Limited &copy;"
            },
            {
                "id": "what",
                "title": "What | Fuori Limited &copy;"
            },
            {
                "id": "who",
                "title": "Who | Fuori Limited &copy;"
            }
        ]
    }
}